<svg width="24" height="24" viewBox="0 0 24 24" fill="none" xmlns="http://www.w3.org/2000/svg">
<mask id="path-1-inside-1_33_1087" fill="white">
<path d="M12 3C9.61305 3 7.32387 3.94821 5.63604 5.63604C3.94821 7.32387 3 9.61305 3 12C3 14.3869 3.94821 16.6761 5.63604 18.364C7.32387 20.0518 9.61305 21 12 21L12 12L12 3Z"/>
</mask>
<path d="M12 3C9.61305 3 7.32387 3.94821 5.63604 5.63604C3.94821 7.32387 3 9.61305 3 12C3 14.3869 3.94821 16.6761 5.63604 18.364C7.32387 20.0518 9.61305 21 12 21L12 12L12 3Z" fill="#677794" stroke="#677794" stroke-width="2" mask="url(#path-1-inside-1_33_1087)"/>
<circle cx="12" cy="12" r="8" stroke="#677794" stroke-width="2"/>
</svg>
